%YAML 1.1
%TAG !u! tag:unity3d.com,2011:
--- !u!1045 &1
EditorBuildSettings:
  m_ObjectHideFlags: 0
  serializedVersion: 2
  m_Scenes:
  - enabled: 1
    path: Assets/Scenes/SampleScene.unity
    guid: 9fc0d4010bbf28b4594072e72b8655ab
  - enabled: 1
    path: Assets/Scenes/Bot.unity
    guid: b1767f3b1dea0bf42aee49ca124b1134
  - enabled: 1
    path: Assets/Scenes/LoadScene.unity
    guid: e87a23721f62200468b8b627b69efbd7
  m_configObjects: {}
